…
## Rows: 5043 Columns: 28
## ── Column specification ────────────────────────────────────────────────────────
## Delimiter: ","
## chr (12): color, director_name, actor_2_name, genres, actor_1_name, movie_ti...
## dbl (16): num_critic_for_reviews, duration, director_facebook_likes, actor_3...
## 
## ℹ Use `spec()` to retrieve the full column specification for this data.
## ℹ Specify the column types or set `show_col_types = FALSE` to quiet this message.

Analysis

movies[!complete.cases(movies),]

## # A tibble: 1,287 × 28
##    color director_name    num_critic_for_reviews duration director_facebook_li…¹
##    <chr> <chr>                             <dbl>    <dbl>                  <dbl>
##  1 <NA>  Doug Walker                          NA       NA                    131
##  2 Color Peter Sohn                          298       93                    113
##  3 Color Roland Joffé                         10      109                    596
##  4 Color Hideaki Anno                          1      120                     28
##  5 Color Peter Jackson                       645      182                      0
##  6 Color <NA>                                 21       60                     NA
##  7 Color Matt Birch                            1       NA                      0
##  8 Color Hideaki Anno                          1      120                     28
##  9 Color Matt Birch                            4       NA                      0
## 10 Color Frédéric Forest…                     33      116                      0
## # ℹ 1,277 more rows
## # ℹ abbreviated name: ¹​director_facebook_likes
## # ℹ 23 more variables: actor_3_facebook_likes <dbl>, actor_2_name <chr>,
## #   actor_1_facebook_likes <dbl>, gross <dbl>, genres <chr>,
## #   actor_1_name <chr>, movie_title <chr>, num_voted_users <dbl>,
## #   cast_total_facebook_likes <dbl>, actor_3_name <chr>,
## #   facenumber_in_poster <dbl>, plot_keywords <chr>, movie_imdb_link <chr>, …
…
